/Users/samjjx/dev/git/bigindex/src/main/java/config/CompressFactor.java
/Users/samjjx/dev/git/bigindex/src/main/java/algorithms/blinksIndex/LPNVertex.java
/Users/samjjx/dev/git/bigindex/src/main/java/test/DTTest.java
/Users/samjjx/dev/git/bigindex/src/main/java/algorithms/blinksIndex/BlinkUniqueCursor.java
/Users/samjjx/dev/git/bigindex/src/main/java/config/Pattern.java
/Users/samjjx/dev/git/bigindex/src/main/java/GUAVATest.java
/Users/samjjx/dev/git/bigindex/src/main/java/bigindex_config/SampleSubGraph.java
/Users/samjjx/dev/git/bigindex/src/main/java/blinks/SearchOriginal.java
/Users/samjjx/dev/git/bigindex/src/main/java/graph/GenGraph.java
/Users/samjjx/dev/git/bigindex/src/main/java/graph/Graph.java
/Users/samjjx/dev/git/bigindex/src/main/java/test/PQueuetest.java
/Users/samjjx/dev/git/bigindex/src/main/java/util/KWSelector.java
/Users/samjjx/dev/git/bigindex/src/main/java/algorithms/GenBiGindex.java
/Users/samjjx/dev/git/bigindex/src/main/java/graph/Edge.java
/Users/samjjx/dev/git/bigindex/src/main/java/algorithms/blinksIndex/LKNVertex.java
/Users/samjjx/dev/git/bigindex/src/main/java/graph/AGraph.java
/Users/samjjx/dev/git/bigindex/src/main/java/blinks/SearchBigIndex.java
/Users/samjjx/dev/git/bigindex/src/main/java/config/StatisticBiGindex.java
/Users/samjjx/dev/git/bigindex/src/main/java/graph/Path.java
/Users/samjjx/dev/git/bigindex/src/main/java/algorithms/BackWardSearch.java
/Users/samjjx/dev/git/bigindex/src/main/java/algorithms/blinksIndex/OptCounter.java
/Users/samjjx/dev/git/bigindex/src/main/java/graph/Partition.java
/Users/samjjx/dev/git/bigindex/src/main/java/test/RemoveTest.java
/Users/samjjx/dev/git/bigindex/src/main/java/test/SCCTest.java
/Users/samjjx/dev/git/bigindex/src/main/java/bigindex_config/Config.java
/Users/samjjx/dev/git/bigindex/src/main/java/graph/MGraph.java
/Users/samjjx/dev/git/bigindex/src/main/java/index/BigIndex.java
/Users/samjjx/dev/git/bigindex/src/main/java/test/SampleTest.java
/Users/samjjx/dev/git/bigindex/src/main/java/graph/OntGraph.java
/Users/samjjx/dev/git/bigindex/src/main/java/result/RcliqueResult.java
/Users/samjjx/dev/git/bigindex/src/main/java/test/Counter.java
/Users/samjjx/dev/git/bigindex/src/main/java/RCliqueTest.java
/Users/samjjx/dev/git/bigindex/src/main/java/graph/PartitionConverter.java
/Users/samjjx/dev/git/bigindex/src/main/java/config/KWFactor.java
/Users/samjjx/dev/git/bigindex/src/main/java/graph/SCC.java
/Users/samjjx/dev/git/bigindex/src/main/java/algorithms/Blinks.java
/Users/samjjx/dev/git/bigindex/src/main/java/algorithms/OptBlock.java
/Users/samjjx/dev/git/bigindex/src/main/java/rclique/ExpOriginalRclique.java
/Users/samjjx/dev/git/bigindex/src/main/java/algorithms/OptBlinks.java
/Users/samjjx/dev/git/bigindex/src/main/java/graph/SVertex.java
/Users/samjjx/dev/git/bigindex/src/main/java/bsim/PaigeTarjan.java
/Users/samjjx/dev/git/bigindex/src/main/java/algorithms/TestOptBlinks.java
/Users/samjjx/dev/git/bigindex/src/main/java/blinks/MulPar.java
/Users/samjjx/dev/git/bigindex/src/main/java/graph/SGraph.java
/Users/samjjx/dev/git/bigindex/src/main/java/util/Timer.java
/Users/samjjx/dev/git/bigindex/src/main/java/graph/SEdge.java
/Users/samjjx/dev/git/bigindex/src/main/java/config/GenFactor.java
/Users/samjjx/dev/git/bigindex/src/main/java/graph/Vertex.java
/Users/samjjx/dev/git/bigindex/src/main/java/algorithms/blinksIndex/BlinkResult.java
/Users/samjjx/dev/git/bigindex/src/main/java/algorithms/TestNewGraph.java
/Users/samjjx/dev/git/bigindex/src/main/java/util/Dijkstra.java
/Users/samjjx/dev/git/bigindex/src/main/java/algorithms/blinksIndex/OptCursor.java
/Users/samjjx/dev/git/bigindex/src/main/java/algorithms/OptSearchBlinks.java
/Users/samjjx/dev/git/bigindex/src/main/java/bigindex_config/GraphSample.java
/Users/samjjx/dev/git/bigindex/src/main/java/result/BlinksResult.java
/Users/samjjx/dev/git/bigindex/src/main/java/algorithms/SearchAlgo.java
/Users/samjjx/dev/git/bigindex/src/main/java/gen/GraphDistrotion.java
/Users/samjjx/dev/git/bigindex/src/main/java/bigindex_config/GenConfig.java
/Users/samjjx/dev/git/bigindex/src/main/java/rclique/SearchBigIndex.java
/Users/samjjx/dev/git/bigindex/src/main/java/util/OWL.java
/Users/samjjx/dev/git/bigindex/src/main/java/decompress/OPTDecompressor.java
/Users/samjjx/dev/git/bigindex/src/main/java/algorithms/blinksIndex/QueueCursor.java
/Users/samjjx/dev/git/bigindex/src/main/java/test/HashSetTest.java
/Users/samjjx/dev/git/bigindex/src/main/java/config/SgraphIndex.java
/Users/samjjx/dev/git/bigindex/src/main/java/util/VertexCounter.java
/Users/samjjx/dev/git/bigindex/src/main/java/rclique/SearchOriginal.java
/Users/samjjx/dev/git/bigindex/src/main/java/algorithms/SearchSpace.java
/Users/samjjx/dev/git/bigindex/src/main/java/algorithms/Cursor.java
/Users/samjjx/dev/git/bigindex/src/main/java/test/CloneTest.java
/Users/samjjx/dev/git/bigindex/src/main/java/config/Query.java
/Users/samjjx/dev/git/bigindex/src/main/java/test/Guava.java
/Users/samjjx/dev/git/bigindex/src/main/java/algorithms/Rclique.java
/Users/samjjx/dev/git/bigindex/src/main/java/decompress/Decompressor.java
/Users/samjjx/dev/git/bigindex/src/main/java/util/IOPack.java
/Users/samjjx/dev/git/bigindex/src/main/java/result/Result.java
/Users/samjjx/dev/git/bigindex/src/main/java/graph/OVertex.java
/Users/samjjx/dev/git/bigindex/src/main/java/HelloWorld.java
/Users/samjjx/dev/git/bigindex/src/main/java/PTTest.java
/Users/samjjx/dev/git/bigindex/src/main/java/bigindex_config/QGen.java
/Users/samjjx/dev/git/bigindex/src/main/java/rclique/ExpBiGindexRclique.java
/Users/samjjx/dev/git/bigindex/src/main/java/test/DiskBiGIndexTest.java
/Users/samjjx/dev/git/bigindex/src/main/java/algorithms/blinksIndex/MNKVertex.java
/Users/samjjx/dev/git/bigindex/src/main/java/BlinkTest.java
